1000:
3.931
3.846
3.667
4.287
10000:
4.406
4.6
10002:
4.955
4.231
10004:
3.791
3.391
4.156
3.797
3.915
3.706
3.76
3.696
3.571
3.312
3.739
3.25
5.0
4.056
3.906
3.9
4.091
10006:
4.78
3.506
1001:
2.945
3.962
3.909
4.404
3.145
4.0
3.68
3.587
4.286
4.086
3.202
3.5
3.5
10010:
3.744
3.358
3.618
3.379
3.038
3.716
3.306
3.094
3.433
2.929
4.09
3.303
3.125
10014:
3.267
4.2
3.049
4.385
10019:
3.169
3.206
3.444
4.0
3.815
4.089
3.875
3.594
4.654
4.0
4.042
10024:
4.173
3.75
4.055
3.789
3.829
3.245
3.435
10037:
3.655
4.164
4.0
4.073
3.545
2.967
3.698
4.08
10042:
3.714
4.75
4.333
3.577
4.348
3.497
3.913
3.5
4.083
3.674
3.804
4.068
10043:
3.943
3.69
4.133
4.027
2.971
3.681
3.734
3.603
3.729
3.804
3.301
3.654
4.125
4.169
3.143
2.333
3.155
2.364
3.543
3.344
3.79
3.455
4.044
3.477
3.941
10053:
3.268
3.293
5.0
3.437
4.5
4.0
3.941
3.851
3.621
3.922
2.944
3.722
4.0
4.453
3.941
3.503
4.161
3.522
4.1
3.0
3.266
3.445
4.423
4.169
3.944
4.154
3.441
10061:
3.444
3.794
4.161
4.444
3.958
3.509
4.357
3.855
4.545
3.741
3.906
4.877
3.923
4.164
4.283
3.938
4.683
3.8
3.485
3.938
3.545
3.857
4.8
4.153
4.102
4.889
3.429
2.625
10066:
3.906
3.205
3.559
3.864
1213:
3.854
4.627
3.426
4.665
3.686
4.2
3.0
3.674
3.574
4.391
3.573
5.0
12136:
3.878
3.8
3.409
12149:
3.618
4.618
4.214
4.965
3.566
3.896
3.7
3.51
3.344
3.333
4.311
3.727
12157:
4.361
4.247
3.862
3.588
3.756
1216:
3.667
4.039
4.205
4.239
3.981
3.342
3.988
3.192
4.0
3.875
3.065
4.071
3.24
3.635
3.273
2.573
3.0
3.377
3.943
3.487
4.182
3.089
3.758
4.5
3.443
3.722
4.158
4.439
3.816
4.363
3.926
12162:
4.015
4.317
2.808
4.109
4.382
4.056
1.656
4.344
4.18
12165:
3.764
3.474
4.444
3.536
4.0
3.665
3.425
3.58
3.846
3.86
12181:
3.766
3.5
3.185
3.376
3.574
4.28
4.103
4.306
4.176
4.0
3.673
3.421
3.429
3.91
4.356
12189:
3.25
4.031
14672:
3.278
1468:
3.667
3.667
3.929
4.266
2.902
3.741
3.76
3.384
4.75
2.93
2.6
4.114
3.488
14681:
3.477
4.646
4.0
3.859
3.094
3.267
4.063
3.4
3.353
4.042
3.74
2.4
3.64
3.409
3.72
3.0
3.222
3.892
4.0
3.512
3.673
4.057
3.833
3.563
3.404
3.489
14694:
3.884
4.257
2.526
3.774
4.154
3.0
3.964
3.977
3.719
2.994
3.962
3.2
2.95
3.6
2.333
3.652
3.911
3.462
1470:
3.594
4.223
3.762
3.412
3.25
3.872
4.056
3.677
3.692
3.643
4.314
4.167
4.308
3.13
3.007
3.896
3.452
3.179
2.846
3.459
4.0
3.893
4.625
3.505
4.319
4.255
3.929
3.957
3.619
3.408
2.429
4.0
3.622
3.385
14702:
4.053
2.929
4.121
4.03
4.188
4.444
4.318
3.651
3.776
4.5
5.0
4.239
3.308
3.946
3.861
4.414
4.12
3.931
4.625
3.513
3.528
4.227
3.7
3.636
4.14
3.241
4.0
3.677
4.195
3.085
4.083
3.691
3.935
3.184
4.147
4.357
4.191
4.404
4.067
3.919
3.732
3.369
4.56
3.333
3.436
3.556
4.043
2.788
3.75
3.71
4.33
2.884
4.036
4.135
3.727
14704:
4.025
4.0
4.036
3.529
3.791
3.707
3.992
2.97
5.0
14709:
2.0
3.584
4.0
4.583
4.0
3.718
4.529
3.775
3.2
3.582
3.75
3.394
3.571
4.622
3.825
3.818
4.0
5.0
4.06
4.0
4.048
3.961
3.67
4.197
3.94
3.6
3.876
3.84
4.688
14716:
4.167
3.5
3.551
3.52
3.408
3.302
4.124
3.565
3.833
4.029
4.026
3.61
3.108
4.164
3.342
3.946
4.114
4.075
3.497
4.193
4.162
3.862
3.489
3.267
3.065
3.744
3.327
14724:
3.616
2.0
2.75
3.692
14731:
4.08
3.528
4.35
3.226
4.021
3.519
4.465
4.333
3.692
3.667
3.7
3.697
3.603
14739:
3.25
3.889
4.679
4.365
14748:
3.29
3.426
4.494
4.182
3.286
1476:
3.562
4.194
4.714
4.053
3.658
3.447
3.6
3.758
3.818
3.688
4.0
3.407
3.598
3.319
4.0
3.326
3.2
3.921
3.92
3.556
3.403
4.08
4.161
3.947
4.0
3.176
3.541
2.471
3.31
4.043
4.184
14768:
3.22
4.185
3.5
4.511
1479:
2.8
3.623
2.5
3.291
2.813
4.043
3.843
3.636
3.78
3.553
2783:
3.52
4.214
4.474
4.636
3.776
3.861
4.429
3.875
4.5
3.422
4.063
3.553
4.403
3.247
4.028
3.533
3.808
3.214
3.475
4.056
3.911
3.147
3.621
3.914
4.357
4.286
4.394
4.034
3.806
3.533
3.908
2787:
3.579
3.321
3.167
3.051
3.644
3.967
3.667
3.5
3.673
4.2
3.85
3.9
4.8
2792:
4.416
3.818
28:
4.182
4.082
3.708
4.41
3.0
3.542
3.395
3.652
2.28
3.59
2.743
4.331
3.589
3.695
4.495
4.16
4.462
3.444
2800:
4.405
3.879
2.773
3.515
3.5
3.618
3.651
4.054
2.909
3.893
3.34
3.558
4.257
4.0
4.351
2801:
3.889
4.4
3.688
3.395
3.2
3.97
3.514
2.667
4.063
2.917
3.705
3.592
3758:
3.136
3.838
3.759
3.557
4.091
3.6
3.862
3.657
3.739
4.25
3.741
3.095
3.441
3.298
3.128
3763:
4.167
3.071
4.33
3.417
3.143
4.08
3.842
3778:
3.44
3.86
4.382
5.0
3.421
3.734
3.136
3.0
3.15
4.279
2.45
3.118
4.44
3.25
3.642
3.846
3.026
3.376
3783:
4.148
3.634
3.247
3.952
3.13
3.13
3.061
3.579
3.5
3.323
3792:
4.458
3.553
2.992
3.125
3.095
2.75
2.75
3.521
4.0
38:
4.238
3.564
3.514
3.653
3.93
3.301
3.357
2.684
2.917
3.11
2.899
3.826
3.6
2.857
3810:
3.833
4.174
3.333
3.218
3.5
3.939
3.542
4.222
3.264
3.878
3.29
3.946
4.324
3.88
3.994
4.612
3.769
3.458
3.568
2.979
4.027
3.103
4.696
3.78
3.392
4.165
2.88
4.067
4.001
4.535
2.774
382:
4.533
3.718
3.369
4.05
3.589
3825:
2.885
4.04
3.55
3.122
3.267
3.9
3.2
3.354
3.4
3.222
3.083
3.641
3.044
3.871
4.227
3.529
3828:
4.667
2.883
3.506
3.518
4.588
3.09
3.516
3.583
3.119
3.899
4.056
4.25
2.919
3.875
3.731
2.509
2.921
3.94
3.359
3.375
1.918
3.399
3.579
3.725
3.429
3.425
4.058
3837:
4.313
4.438
4.346
3.568
4.315
5.0
4.182
3851:
4.09
3.789
4.636
3.169
4.475
4.192
3.478
4.032
4.217
3862:
4.357
3.77
4.118
3.771
4.701
3.627
3.992
4.716
3.563
3.75
4.276
4.077
4.434
4.212
3.394
4063:
3.494
3.822
2.802
3.9
3.212
3.429
3.783
3.16
3.403
3.838
3.215
3.455
3.048
3.802
3.626
3.527
3.788
3.604
3.875
3.35
4.336
3.5
4.238
3.357
4.032
4086:
3.16
3.627
2.409
3.028
3.489
2.05
1.714
4110:
4.173
3.143
4115:
4.114
3.784
4.538
4.192
3.231
3.973
4.235
4.576
4.194
3.143
3.672
3.649
3.899
4.478
4.285
3.557
4.193
3.805
4.008
3.964
3.762
3.085
3.828
4.0
4.164
4.226
4.421
3.453
6632:
3.955
4.425
4.308
4.277
4.184
3.726
4.0
3.917
3.279
3.041
3.713
4.333
3.228
3.5
3.929
3.5
3.909
2.507
2.857
3.591
3.061
3.239
4.014
3.086
7716:
3.683
3.959
4.594
3.841
2.989
3.549
4.483
3.803
3.675
4.024
4.802
4.198
3.875
3.64
4.034
1.08
