10040:
3.3365
3.2405
3.5835
1:
3.692
3.492
3.6455
4.204000000000001
3.6975
3.7995
3.5415
3.697
3.864
3.6075
3.331
3.6425
3.8345000000000002
3.846
3.2385
3.8194999999999997
3.6405000000000003
4.1025
3.9135
3.9385
3.3855
4.375
3.6100000000000003
10:
3.295
3.168
1000:
3.4405
3.2859999999999996
3.142
4.1419999999999995
3.7055
3.5205
3.4545
3.7855
3.315
3.0709999999999997
3.463
3.5865
3.4405
3.984
3.7795
3.3395
3.3225
3.336
3.417
3.642
3.5084999999999997
3.779
3.0095
3.3455
3.8489999999999998
3.3659999999999997
3.628
10000:
3.654
3.581
10001:
3.548
3.9965
3.705
3.1985
4.009
3.5614999999999997
3.5705
3.8395
3.815
3.6155
3.9105
3.918
3.3019999999999996
3.936
3.6544999999999996
3.58
4.036
10002:
3.9745
3.492
4.198
3.8395
10003:
3.0404999999999998
10004:
4.3774999999999995
3.8899999999999997
4.0
3.7924999999999995
4.182499999999999
4.003
4.0665
3.9935
3.9844999999999997
3.9524999999999997
4.0344999999999995
3.8129999999999997
3.9844999999999997
3.777
4.0489999999999995
4.0075
4.0575
4.0545
4.15
3.8535
3.968
3.8514999999999997
3.8735
3.912
4.4975
3.7524999999999995
3.9225
4.021
3.5795
4.2455
4.1165
10005:
3.606
3.8375
3.449
3.2785
3.3315
10006:
3.7065
3.4190000000000005
3.8005000000000004
3.1635
10007:
2.873
3.176
2.9625000000000004
2.967
2.8529999999999998
3.0965
2.9095
3.2695
3.0650000000000004
3.2225
2.9645
3.1165000000000003
3.0025000000000004
10008:
4.1765
3.4450000000000003
3.5780000000000003
3.1775
3.9385
3.819
3.8075
10009:
3.3235
3.5305
4.11
3.156
3.1095
3.482
1001:
4.0155
3.5205
3.3205
3.3935000000000004
3.8115
3.803
3.666
3.5195
3.1425
3.6395
3.613
3.735
3.265
3.5940000000000003
3.4985
3.452
3.8015
3.7015000000000002
3.2575000000000003
3.3689999999999998
3.2655000000000003
3.6685
3.4575
3.1790000000000003
3.563
3.318
3.6015
3.613
3.6585
3.884
3.6325000000000003
4.1585
3.2785
3.5305
3.5185000000000004
3.5305
3.837
3.1585
3.1845
3.6605
3.7815000000000003
3.3064999999999998
3.615
3.7995
3.845
3.637
3.4785000000000004
3.3695000000000004
3.3945
3.835
3.3835
2.968
3.0585
3.6375
3.696
3.8805
3.2485
3.5225
3.575
3.3755
3.507
3.3585000000000003
3.348
3.2695
3.797
3.2595
3.204
3.292
3.795
3.5415
3.2865
3.3680000000000003
3.564
3.2830000000000004
3.349
3.665
3.106
3.137
3.56
3.5665
3.6585
3.797
3.0745
3.6105
3.5145
3.4565
3.476
3.8275
3.468
3.23
3.825
3.5395000000000003
3.6225
3.6905
3.3529999999999998
3.1585
3.348
3.3805
3.4465000000000003
3.5155000000000003
3.575
3.5325
3.325
3.3070000000000004
3.5275
3.518
3.6335
3.6750000000000003
3.6275000000000004
3.1545
3.3055000000000003
3.4755000000000003
3.4930000000000003
3.298
3.492
3.1395
3.305
3.72
3.652
3.3265000000000002
3.444
3.534
3.406
3.5335
3.4234999999999998
3.476
3.325
3.7025
3.5055
3.395
3.5250000000000004
3.664
3.6029999999999998
3.3925
10010:
2.9530000000000003
2.8495
2.87
3.2875
3.1445
2.9355
3.0084999999999997
2.8994999999999997
2.669
3.0715000000000003
2.755
2.7465
2.816
2.6639999999999997
3.2395
2.899
2.762
3.1285
2.4345
2.9335
2.6515
2.737
2.776
10011:
4.052
3.8739999999999997
10012:
3.3625
3.823
3.2945
3.3600000000000003
3.6575
3.6975
3.0415
3.4530000000000003
3.3040000000000003
3.46
3.6854999999999998
3.3535
3.2915
10013:
3.604
3.436
3.5839999999999996
3.659
3.464
3.533
3.4299999999999997
3.5984999999999996
3.4325
3.7095000000000002
3.252
3.8084999999999996
3.426
3.6254999999999997
3.3285
3.4255
3.2535
3.3625
3.4875
3.2154999999999996
3.3099999999999996
3.149
3.4015
3.62
3.6275
3.399
3.4805
3.093
3.215
3.4585
3.3625
3.1895
3.2775
3.7009999999999996
3.3545
3.2859999999999996
3.4985
3.787
3.694
3.1814999999999998
3.8335
3.44
3.5355
3.4855
3.5335
3.1745
3.4219999999999997
3.524
3.2785
3.5915
3.3064999999999998
3.3635
3.5835
3.71
3.4505
3.1355
3.713
10014:
3.3635
3.811
3.1045
3.617
3.3495
10015:
3.713
3.457
3.2649999999999997
3.572
3.7685
3.5655
3.8525
3.7415
3.7565
3.496
3.8019999999999996
3.6479999999999997
3.533
3.8745
3.8745
3.5454999999999997
3.6975
3.896
3.689
3.8895
4.4005
3.8834999999999997
4.134
3.2415
3.408
3.473
3.8890000000000002
3.6624999999999996
10016:
3.177
2.774
2.924
3.238
3.646
10017:
3.351
3.5235000000000003
3.38
10018:
4.179
3.7525
3.239
3.349
3.5305
3.7005
3.5915
3.4485
2.9905
3.792
3.591
3.7935
3.7645
3.705
3.458
3.653
3.5305
3.627
3.533
3.627
3.5705
3.4210000000000003
3.8375
3.8865
3.511
3.8055
3.6035
3.748
3.6745
3.8649999999999998
10019:
3.5365
3.3625
3.6935000000000002
3.3209999999999997
3.9985
3.937
3.5755
3.133
3.7175
3.4825
4.0535
3.285
3.3055
3.4385
3.7005
3.6144999999999996
3.745
3.564
3.4974999999999996
4.0275
3.7005
3.7215
3.7055
3.5945
3.783
3.7464999999999997
3.3695
3.4425
3.4615
3.7005
3.495
3.508
3.7005
3.816
3.444
3.8305
2.996
3.6405
3.792
3.8005
3.8345
3.928
3.6455
3.7435
3.9255
3.2865
3.7235
3.904
3.772
3.6365
3.3449999999999998
3.4405
3.7464999999999997
3.452
3.4859999999999998
3.0025
3.231
3.4115
4.0035
3.415
3.2569999999999997
3.5054999999999996
3.4695
3.4995
3.7455
4.2005
3.4995
4.1935
3.6014999999999997
1002:
3.4139999999999997
3.2145
3.487
3.574
3.5015
3.6235
3.7640000000000002
3.0235000000000003
3.5365
3.535
3.839
3.5645
3.4735
3.3345000000000002
10020:
3.8049999999999997
3.8875
3.692
3.9574999999999996
3.7880000000000003
3.6799999999999997
3.8034999999999997
3.9935
3.968
3.8335
3.8045
4.3084999999999996
3.724
3.867
3.8274999999999997
3.807
3.9805
3.6355
3.9345
3.6334999999999997
4.047
3.526
3.739
3.707
3.482
3.082
3.9565
10021:
2.8235
3.0495
3.0814999999999997
2.88
10022:
2.904
3.4325
3.2845
3.175
3.4495
3.4459999999999997
3.089
3.105
10023:
3.8265000000000002
3.7675
3.7865
3.6100000000000003
4.238
3.612
3.4850000000000003
3.7475
3.5745
3.8049999999999997
4.039
10024:
3.5789999999999997
3.8155
3.4745
3.7415
3.5525
3.3695
3.3575
3.425
3.675
3.6845
10025:
3.2649999999999997
10027:
4.1245
3.6870000000000003
3.641
3.699
3.35
3.6580000000000004
3.5995
3.9684999999999997
3.515
3.9115
3.7350000000000003
3.763
3.863
3.511
3.7915
4.0075
3.6525
3.883
3.9535
3.8209999999999997
3.6065
3.9395
3.7525
3.673
3.9779999999999998
3.874
4.041
4.101
4.1835
4.1095
4.1365
3.885
3.488
3.6785
3.8775
4.1105
4.2085
3.8775
3.9025
3.624
3.95
3.9375
4.3835
3.7175000000000002
3.6755
3.9935
3.8965
3.8185000000000002
4.0395
4.017
3.7945
3.9955
3.6905
3.646
3.5895
3.9749999999999996
3.6135
3.6365
4.049
3.9595000000000002
3.6685
3.6795
3.4955
3.464
4.1165
4.3075
3.4775
3.9225000000000003
3.5004999999999997
3.9829999999999997
3.944
3.9275
3.846
3.7504999999999997
4.121
3.8405
3.989
3.9135
3.3215000000000003
3.709
4.226
4.2860000000000005
3.3440000000000003
3.7385
3.8785
4.008
3.758
3.8935
10028:
3.242
3.3644999999999996
3.203
3.743
3.8125
3.173
3.897
10029:
3.3355
3.792
3.7270000000000003
3.2350000000000003
10031:
3.4565
3.1345
3.5839999999999996
3.053
3.8005
3.2575
3.1585
2.9734999999999996
3.155
10032:
3.3785
4.253
3.9365
3.9915
3.886
3.199
3.599
3.5324999999999998
3.7545
3.0549999999999997
3.4295
3.956
4.202999999999999
3.572
3.906
3.2315
3.6835
3.5655
3.569
3.678
3.439
3.6029999999999998
3.4885
3.608
3.627
3.3680000000000003
3.5675
3.5949999999999998
3.938
3.4450000000000003
3.6325000000000003
3.7405
3.9065
3.7295
3.5365
3.848
3.489
3.476
3.5484999999999998
3.534
3.5995
3.6605
3.54
3.3434999999999997
3.529
3.6414999999999997
3.823
10033:
3.6385
3.4755000000000003
3.0065
3.5140000000000002
3.4365
3.1465
3.3495
3.2315
3.4525
3.2640000000000002
3.54
3.4085
4.0495
3.6685000000000003
10034:
2.6580000000000004
3.007
10035:
3.151
4.177
4.2385
3.9855
4.086
4.039
3.673
3.6189999999999998
3.7395
3.5629999999999997
3.8745000000000003
3.76
3.879
3.9505
3.799
3.8125
3.873
3.936
3.9885
4.4725
10036:
3.4905
3.5389999999999997
3.633
3.5140000000000002
3.803
3.6535
3.3665
3.7225
3.271
3.3979999999999997
3.5125
3.6725
3.8724999999999996
3.8175
4.151
3.864
3.6985
3.848
3.1475
3.3905
3.7355
3.5389999999999997
3.974
3.8434999999999997
3.832
3.9639999999999995
3.823
3.7645
3.798
3.3525
3.6835
3.407
3.3465
3.5999999999999996
3.5300000000000002
3.599
3.7435
3.7205
3.6135
3.8055
3.549
3.7889999999999997
3.9924999999999997
3.8795
3.814
3.904
4.1805
4.1475
3.432
3.8955
3.5004999999999997
3.755
3.7554999999999996
3.378
3.667
4.0295
3.44
4.3069999999999995
3.5534999999999997
3.8895
3.7889999999999997
4.059
3.4745
4.0845
3.4865
4.1125
3.6399999999999997
3.9139999999999997
3.7775
3.854
4.1965
3.8644999999999996
3.7720000000000002
3.5084999999999997
3.8365
3.979
3.899
3.4885
3.9139999999999997
3.9189999999999996
3.714
3.5575
4.2255
3.885
3.3449999999999998
3.7695
3.6319999999999997
3.8085
3.7935
3.6639999999999997
3.5345
3.9814999999999996
3.623
3.9345
3.638
3.493
3.5
3.819
3.593
3.9465000000000003
3.9844999999999997
3.766
3.6185
4.094
3.502
3.3445
3.729
3.4615
3.5395
3.791
3.7984999999999998
3.5445
3.635
3.839
3.588
3.7024999999999997
4.164
3.553
3.6155
3.8274999999999997
3.716
3.7685
3.7835
3.652
3.8259999999999996
3.557
3.9855
4.1225
3.5934999999999997
3.5214999999999996
3.8434999999999997
3.441
3.4855
3.9139999999999997
3.6159999999999997
3.48
3.7855
3.7705
3.8975
3.3890000000000002
4.1915
3.9295
3.474
3.692
3.534
4.164
3.5605
3.7855
3.569
3.4814999999999996
3.814
3.8369999999999997
3.8655
3.5825
3.714
3.5505
4.267
3.614
3.7024999999999997
4.0645
3.903
3.562
3.83
3.8914999999999997
3.7009999999999996
3.6975
3.887
4.0445
3.7714999999999996
3.609
3.5229999999999997
3.618
3.941
3.5715
3.83
3.7889999999999997
3.6295
3.9139999999999997
3.885
4.06
3.7095000000000002
4.0565
3.4725
3.7705
4.2115
3.6525
3.6879999999999997
3.683
3.8564999999999996
3.7169999999999996
3.8045
3.4855
3.814
4.224
3.9025
3.3305
3.7089999999999996
3.8095
3.4189999999999996
3.753
3.769
3.7439999999999998
3.606
3.7385
3.2889999999999997
4.271
3.769
3.8475
3.5035
3.6475
3.7215
3.573
4.0445
3.594
3.583
0.98
